[
  {
    "name": "Гриль TEFAL OptiGrill+  Initial GC706",
    "price": "4999",
    "imgUrl": "https://images.ua.prom.st/1083781439_w640_h640_gril-tefal-optigrill.jpg",
    "color": "black",
    "id": "41020184"
  },
  {
    "name": "Робот-пилосос ILIFE Robot Vacuum V7s",
    "price": "4875",
    "imgUrl": "https://i2.rozetka.ua/goods/14138979/124420362_images_14138979809.jpg",
    "color": "pink",
    "id": "62647814"
  },
  {
    "name": "Електрична зубна щітка PHILIPS Sonicare ProtectiveClean 4500",
    "price": "2500",
    "imgUrl": "https://i1.rozetka.ua/goods/12425685/philips_hx6836_24_images_12425685464.jpg",
    "color": "pink",
    "id": "93277172"
  },
  {
    "name": "Монітор 24\" Samsung S24R350 Dark Silver\n",
    "price": "3299",
    "imgUrl": "https://i2.rozetka.ua/goods/21166559/samsung_ls24r350fhixci_images_21166559571.jpg",
    "color": "Grey",
    "id": "123242339"
  },
  {
    "name": "Зволожувач повітря COOPER&HUNTER CH-4645T\n",
    "price": "2499",
    "imgUrl": "https://i2.rozetka.ua/goods/20438368/cooper_hunter_ch-4645t_cayman_images_20438368821.jpg",
    "color": "white",
    "id": "257545326"
  },
  {
    "name": "Зволожувач повітря ELECTROLUX EHU-3315D",
    "price": "4999",
    "imgUrl": "https://i1.rozetka.ua/goods/2296198/electrolux_ehu_3315d_images_2296198905.jpg",
    "color": "white",
    "id": "25052177"
  },
  {
    "name": "Мобільний телефон Samsung Galaxy A31 4/64GB Crush Blue",
    "price": "5999",
    "imgUrl": "https://i2.rozetka.ua/goods/17537537/samsung_sm_a315fzbusek_images_17537537839.jpg",
    "color": "Prism Crush Blue",
    "id": "199325431"
  },
  {
    "name": "Мікрохвильова піч SAMSUNG MS23F302",
    "price": "3199",
    "imgUrl": "https://i2.rozetka.ua/goods/1669272/1178705_images_1669272203.jpg",
    "color": "Silver",
    "id": "1178705"
  },
  {
    "name": "Смарт-годинник Samsung Galaxy Watch 3 45 mm Silver",
    "price": "11999",
    "imgUrl": "https://i8.rozetka.ua/goods/19432806/samsung_sm_r840nzsasek_images_19432806823.jpg",
    "color": "Silver",
    "id": "238956235"
  },
  {
    "name": "Навушники Samsung Galaxy Buds Live",
    "price": "4499",
    "imgUrl": "https://i8.rozetka.ua/goods/20658275/copy_becover_bc_705413_5fa96038439df_images_20658275796.jpg",
    "color": "Bronze",
    "id": "238792495"
  }
]
